<svg width="355" height="48" xmlns="http://www.w3.org/2000/svg"><path d="M121.21 19.858a6.184 6.184 0 01-5.07-2.6l-3.706 3.388a10.93 10.93 0 008.567 3.415c5.018 0 8.093-2.364 8.093-6.251 0-3.125-1.55-4.859-5.098-5.646l-2.68-.605c-1.918-.42-2.523-.84-2.523-1.707 0-.814.893-1.313 2.338-1.313a7.048 7.048 0 015.021 2.285l3.125-3.494a10.817 10.817 0 00-7.725-2.81c-4.756 0-7.699 2.154-7.699 5.699 0 3.1 1.814 5.07 5.413 5.858l2.365.525c1.734.367 2.26.761 2.26 1.707 0 .971-1.025 1.55-2.68 1.55zM95.414 39.47h7.49v-3.862h-7.49v-3.255h7.936v-3.94H89.923V47.06h13.611v-3.94h-8.12v-3.65zm10.459-15.854h5.491V4.967h-5.491v18.648zm16.204 4.797h-9.17V47.06h5.49v-6.304h3.548c4.389 0 7.042-2.39 7.042-6.303 0-3.651-2.733-6.04-6.91-6.04zm-1.525 8.667h-2.154v-4.86h2.154c1.76 0 2.68.842 2.68 2.443 0 1.577-.946 2.417-2.68 2.417zm14.823-13.464h5.49V9.274h5.178V4.966h-15.846v4.308h5.177v14.34zm37.81-18.648h-5.49V17.26h5.49V4.967zM34.508 16.053c0 4.556-1.784 6.368-5.299 6.395-3.047-.027-5.217-1.592-5.217-5.873V5.32h-2.636v11.528c0 4.94 2.993 7.411 7.112 7.411 4.64 0 7.029-3.212 7.029-7.466V5.32h-.988v10.732zM9.164 20.692L1.503 5.32H.322v18.664h.988V10.921l6.536 13.064h.906L14.3 11.14v12.846h2.636V5.321h-1.208L9.164 20.69zm48.354-6.368h6.151V13.5h-6.151V6.144h7.716v-.823H54.882v18.664h10.956v-.823h-8.32v-8.838zM42.059 9.328c0-1.977 1.373-3.184 3.598-3.184a2.833 2.833 0 012.367.747c.632.6.954 1.459.872 2.327 0 .247 0 .604-.027.906h1.84a5.11 5.11 0 00-1.695-3.804 5.097 5.097 0 00-3.962-1.274 5.172 5.172 0 00-3.73 1.407 5.185 5.185 0 00-1.625 3.643c0 6.615 9.309 4.283 9.309 9.662 0 1.757-1.235 3.431-4.256 3.431-2.444 0-3.817-1.043-3.817-3.65 0-.248 0-.522.027-.796h-2.004c0 3.843 3.048 5.544 6.344 5.544a5.627 5.627 0 004.137-1.331 5.64 5.64 0 001.959-3.884c-.001-6.752-9.337-4.42-9.337-9.744zM64.175.494h-3.166l-1.858 3.108h.98L64.176.494zm14.211 27.918h-8.145V47.06h8.093a8.898 8.898 0 006.892-2.585 8.92 8.92 0 002.594-6.897 8.784 8.784 0 00-2.652-6.713 8.762 8.762 0 00-6.782-2.453zm-.315 14.735h-2.339V32.325h2.391c2.786 0 4.047 2.312 4.047 5.253 0 2.994-1.392 5.569-4.1 5.569zm1.798-19.985h-8.32v-8.838H77.7V13.5h-6.15V6.144h7.715v-.823H68.913v18.664h10.956v-.823zm11.385-6.901h5.967v7.354h5.49V4.966H97.22v7.17h-5.966v-7.17h-5.491v18.649h5.491V16.26zM330.04 36.736h6.098v-.815h-6.098v-7.292h7.649v-.816h-10.262v18.5h10.861v-.816h-8.248v-8.76zm-68.336 5.415l-12.086-14.339h-.98v18.502h.98V31.976l12.086 14.338h1.007V27.812h-1.007v14.34zm11.878-14.474l-7.458 18.637h.953l2.504-6.394h6.831l2.532 6.394h2.83l-7.376-18.637h-.816zm-3.647 11.399l3.048-7.809 3.103 7.809h-6.15zm24.991-11.263l-5.96 15.073-5.907-15.073h-2.831l7.349 18.636h.817l7.485-18.636h-.953zm-51.632 4.434c0-2.993-2.096-4.435-5.226-4.435h-5.962v18.502h2.614v-9.17h1.334l6.288 9.17h2.858v-.245l-6.369-9.25c2.557-.653 4.463-2.286 4.463-4.572zm-8.575 4.054V28.63h2.178a3.57 3.57 0 012.775 1.142 3.579 3.579 0 01.927 2.857 3.296 3.296 0 01-.915 2.7 3.288 3.288 0 01-2.678.974h-2.287zm66.965-8.625l-7.458 18.637h.954l2.504-6.394h6.83l2.532 6.394h2.831l-7.375-18.636-.818-.001zm-3.647 11.399l3.048-7.809 3.103 7.809h-6.151zm-77.536-11.4l-7.458 18.638h.953l2.504-6.394h6.831l2.532 6.394h2.83l-7.376-18.637h-.816zm-3.648 11.4l3.049-7.809 3.103 7.809h-6.152zm123.404-11.263v.816h5.961v17.684h2.614V28.628h5.96v-.816h-14.535zm-24.354 0h-2.614v18.502h10.59v-.817h-7.976V27.812zM167.702 47.059h5.491V34.27h-5.491v12.79zm-2.522-12.764c0-3.809-2.524-5.884-7.174-5.884h-8.908V47.06h5.492v-6.83h2.076l3.047 6.829h5.886l-3.783-7.643a5.336 5.336 0 003.364-5.121v-.001zm-8.41 2.39h-2.18V32.09h2.18c1.788 0 2.681.735 2.681 2.207 0 1.549-.945 2.39-2.68 2.39zm-22.651-8.273l-6.62 18.648h5.49l1.184-3.809h6.411l1.182 3.809h5.492l-6.621-18.648h-6.518zm1.183 11.162l1.235-4.044a19.67 19.67 0 00.814-3.31h.052a19.73 19.73 0 00.815 3.31l1.236 4.044h-4.152zm35.145-16.663a3.14 3.14 0 00-3.131 3.145 3.14 3.14 0 003.139 3.137 3.14 3.14 0 002.214-5.363 3.138 3.138 0 00-2.221-.92zm-4.882-8.62c0-5.988-3.73-9.77-9.564-9.77s-9.565 3.782-9.565 9.77c0 5.987 3.73 9.77 9.565 9.77 5.833 0 9.565-3.782 9.565-9.77zm-13.506 0c0-3.493 1.472-5.542 3.942-5.542s3.941 2.049 3.941 5.541c0 3.493-1.47 5.542-3.94 5.542-2.47 0-3.942-2.048-3.942-5.542zm40.336-3.44c0-3.808-2.524-5.885-7.174-5.885h-8.907v18.649h5.49v-6.83h2.077l3.048 6.83h5.886l-3.783-7.644a5.337 5.337 0 003.363-5.12zm-8.41 2.389h-2.18V8.644h2.18c1.788 0 2.681.735 2.681 2.206.001 1.55-.945 2.39-2.68 2.39zm-1.017 18.744a7.044 7.044 0 015.018 2.285l3.128-3.494a10.818 10.818 0 00-7.725-2.809c-4.757 0-7.7 2.153-7.7 5.698 0 3.1 1.814 5.07 5.413 5.858l2.365.526c1.735.367 2.26.76 2.26 1.706 0 .972-1.024 1.55-2.68 1.55a6.181 6.181 0 01-5.071-2.6l-3.705 3.388a10.929 10.929 0 008.566 3.414c5.018 0 8.093-2.364 8.093-6.25 0-3.126-1.551-4.86-5.098-5.647l-2.681-.605c-1.918-.42-2.522-.84-2.522-1.708 0-.813.895-1.312 2.34-1.312h-.001zm25.56-12.31h-8.12v-3.65h7.49v-3.862h-7.49V8.907h7.937v-3.94h-13.428v18.647h13.61l.001-3.94zm-2.982 24.544c-4.6 0-7.294-3.753-7.294-8.76 0-4.354 2.095-6.83 5.934-6.83a4.287 4.287 0 013.593 1.316 4.298 4.298 0 011.115 3.663h1.96a6.197 6.197 0 00-2.016-4.464 6.183 6.183 0 00-4.625-1.602c-5.008 0-8.466 4.57-8.466 9.686a8.885 8.885 0 002.358 6.523 8.864 8.864 0 006.325 2.835 6.918 6.918 0 006.832-5.957l-.462-.109a5.114 5.114 0 01-5.253 3.7z" fill="#DA291C"/><script xmlns="">{
            document.currentScript.dataset.injected = true;
            const o = JSON.parse(decodeURIComponent(escape(atob('eyJ1c2VyQWdlbnQiOiJNb3ppbGxhLzUuMCAoWDExOyBMaW51eCB4ODZfNjQ7IHJ2OjEwOS4wKSBHZWNrby8yMDEwMDEwMSBGaXJlZm94LzExNS4wIiwiYXBwVmVyc2lvbiI6IjUuMCAoWDExKSIsInBsYXRmb3JtIjoiTGludXgiLCJ2ZW5kb3IiOiIiLCJwcm9kdWN0IjoiR2Vja28iLCJ1c2VyQWdlbnREYXRhIjoiW2RlbGV0ZV0iLCJvc2NwdSI6IkxpbnV4IHg4Nl82NCIsInByb2R1Y3RTdWIiOiIyMDEwMDEwMSIsImJ1aWxkSUQiOiIyMDE4MTAwMTAwMDAwMCJ9'))));

            if (o.userAgentDataBuilder) {
              const v = new class NavigatorUAData {
                #p;

                constructor({p, ua}) {
                  this.#p = p;

                  const version = p.browser.major;
                  const name = p.browser.name === 'Chrome' ? 'Google Chrome' : p.browser.name;

                  this.brands = [{
                    brand: name,
                    version
                  }, {
                    brand: 'Chromium',
                    version
                  }, {
                    brand: 'Not=A?Brand',
                    version: '24'
                  }];

                  this.mobile = /Android|webOS|iPhone|iPad|iPod|BlackBerry|IEMobile|Opera Mini/i.test(ua);

                  // https://developer.mozilla.org/en-US/docs/Web/HTTP/Headers/Sec-CH-UA-Platform
                  this.platform = 'Unknown';
                  if (p.os &amp;&amp; p.os.name) {
                    const name = p.os.name.toLowerCase();
                    if (name.includes('mac')) {
                      this.platform = 'macOS';
                    }
                    else if (name.includes('debian')) {
                      this.platform = 'Linux';
                    }
                    else {
                      this.platform = p.os.name;
                    }
                  }
                }
                toJSON() {
                  return {
                    brands: this.brands,
                    mobile: this.mobile,
                    platform: this.platform
                  };
                }
                getHighEntropyValues(hints) {
                  if (!hints || Array.isArray(hints) === false) {
                    return Promise.reject(Error("Failed to execute 'getHighEntropyValues' on 'NavigatorUAData'"));
                  }

                  const r = this.toJSON();

                  if (hints.includes('architecture')) {
                    r.architecture = this.#p?.cpu?.architecture || 'x86';
                  }
                  if (hints.includes('bitness')) {
                    r.bitness = '64';
                  }
                  if (hints.includes('model')) {
                    r.model = '';
                  }
                  if (hints.includes('platformVersion')) {
                    r.platformVersion = this.#p?.os?.version || '10.0.0';
                  }
                  if (hints.includes('uaFullVersion')) {
                    r.uaFullVersion = this.brands[0].version;
                  }
                  if (hints.includes('fullVersionList')) {
                    r.fullVersionList = this.brands;
                  }
                  return Promise.resolve(r);
                }
              }(o.userAgentDataBuilder);

              navigator.__defineGetter__('userAgentData', () =&gt; {
                return v;
              });
            }
            delete o.userAgentDataBuilder;

            for (const key of Object.keys(o)) {
              if (o[key] === '[delete]') {
                delete Object.getPrototypeOf(window.navigator)[key];
              }
              else {
                navigator.__defineGetter__(key, () =&gt; {
                  if (o[key] === 'empty') {
                    return '';
                  }
                  return o[key];
                });
              }
            }
          }</script></svg>